<svg xmlns="http://www.w3.org/2000/svg" width="56" height="53" viewBox="0 0 56 53">
    <g fill="#FFF" fill-rule="nonzero">
        <path d="M49.356 18c-.525 0-.95.447-.95 1v32H1.899V2h46.509v1c0 .553.424 1 .949 1 .525 0 .95-.447.95-1V0H0v53h50.305V19c0-.553-.424-1-.95-1z"/>
        <path d="M55.722 4.293a.914.914 0 0 0-1.342 0L25.627 34.586l-12.405-13.07a.914.914 0 0 0-1.342 0 1.037 1.037 0 0 0 0 1.414l13.076 13.777a.923.923 0 0 0 .671.293.923.923 0 0 0 .671-.293l29.424-31a1.037 1.037 0 0 0 0-1.414z"/>
    </g>
</svg>
